

















tst/bin/benchdict

real	0m54.849s
user	3m38.216s
sys	0m6.251s

real	0m53.184s
user	3m49.378s
sys	0m6.752s

real	0m54.741s
user	3m41.757s
sys	0m6.493s

real	0m53.459s
user	3m44.171s
sys	0m6.561s

real	0m54.112s
user	3m40.342s
sys	0m6.260s
tst/bin/benchindict

real	1m16.962s
user	5m21.831s
sys	0m8.154s

real	1m14.037s
user	5m25.460s
sys	0m7.517s

real	1m5.414s
user	4m59.464s
sys	0m6.484s

real	1m14.275s
user	5m26.194s
sys	0m8.473s

real	1m15.835s
user	5m46.803s
sys	0m8.185s
tst/bin/benchfeld

real	3m35.946s
user	19m3.076s
sys	0m10.330s

real	3m29.189s
user	18m44.100s
sys	0m9.942s

real	3m32.525s
user	17m58.460s
sys	0m9.855s

real	3m37.120s
user	19m11.297s
sys	0m9.660s

real	3m34.752s
user	19m1.556s
sys	0m9.041s
tst/bin/benchmich

real	0m28.910s
user	2m18.770s
sys	0m2.100s

real	0m29.205s
user	2m19.728s
sys	0m1.946s

real	0m28.900s
user	2m17.931s
sys	0m2.095s

real	0m29.450s
user	2m20.403s
sys	0m2.050s

real	0m28.907s
user	2m18.316s
sys	0m1.927s
tst/bin/benchstl

real	4m46.553s
user	3m5.389s
sys	23m36.330s

real	4m40.519s
user	3m17.460s
sys	22m49.381s

real	4m55.780s
user	3m10.990s
sys	24m19.473s

real	5m0.697s
user	3m19.993s
sys	24m53.474s

real	5m15.882s
user	3m35.862s
sys	25m30.486s
tst/bin/benchrw

real	15m34.505s
user	10m40.815s
sys	57m49.106s

real	16m23.334s
user	11m14.442s
sys	59m31.931s

real	17m55.092s
user	11m29.707s
sys	64m19.958s

real	17m34.017s
user	11m50.980s
sys	62m42.418s

real	17m53.281s
user	11m51.662s
sys	63m53.847s
