
tst/bin/benchfeld: no threadWatch

real	1m24.537s
user	2m7.872s
sys	0m22.514s

real	1m21.788s
user	2m7.447s
sys	0m23.910s

real	1m21.509s
user	2m7.932s
sys	0m23.946s

real	1m20.137s
user	2m7.209s
sys	0m23.277s

real	1m18.534s
user	2m7.670s
sys	0m23.783s
