
tst/bin/benchfeld: no threadWatch

real	0m55.840s
user	3m44.303s
sys	0m44.783s

real	0m54.345s
user	3m39.366s
sys	0m43.612s

real	0m53.544s
user	3m38.001s
sys	0m43.907s

real	0m53.915s
user	3m40.297s
sys	0m43.295s

real	0m52.286s
user	3m29.316s
sys	0m41.533s
