%!PS-Adobe-3.0 EPSF-3.0
%%Creator: cairo 1.14.2 (http://cairographics.org)
%%CreationDate: Fri May 22 14:06:13 2015
%%Pages: 1
%%DocumentData: Clean7Bit
%%LanguageLevel: 2
%%BoundingBox: 0 0 180 116
%%EndComments
%%BeginProlog
save
50 dict begin
/q { gsave } bind def
/Q { grestore } bind def
/cm { 6 array astore concat } bind def
/w { setlinewidth } bind def
/J { setlinecap } bind def
/j { setlinejoin } bind def
/M { setmiterlimit } bind def
/d { setdash } bind def
/m { moveto } bind def
/l { lineto } bind def
/c { curveto } bind def
/h { closepath } bind def
/re { exch dup neg 3 1 roll 5 3 roll moveto 0 rlineto
      0 exch rlineto 0 rlineto closepath } bind def
/S { stroke } bind def
/f { fill } bind def
/f* { eofill } bind def
/n { newpath } bind def
/W { clip } bind def
/W* { eoclip } bind def
/BT { } bind def
/ET { } bind def
/pdfmark where { pop globaldict /?pdfmark /exec load put }
    { globaldict begin /?pdfmark /pop load def /pdfmark
    /cleartomark load def end } ifelse
/BDC { mark 3 1 roll /BDC pdfmark } bind def
/EMC { mark /EMC pdfmark } bind def
/cairo_store_point { /cairo_point_y exch def /cairo_point_x exch def } def
/Tj { show currentpoint cairo_store_point } bind def
/TJ {
  {
    dup
    type /stringtype eq
    { show } { -0.001 mul 0 cairo_font_matrix dtransform rmoveto } ifelse
  } forall
  currentpoint cairo_store_point
} bind def
/cairo_selectfont { cairo_font_matrix aload pop pop pop 0 0 6 array astore
    cairo_font exch selectfont cairo_point_x cairo_point_y moveto } bind def
/Tf { pop /cairo_font exch def /cairo_font_matrix where
      { pop cairo_selectfont } if } bind def
/Td { matrix translate cairo_font_matrix matrix concatmatrix dup
      /cairo_font_matrix exch def dup 4 get exch 5 get cairo_store_point
      /cairo_font where { pop cairo_selectfont } if } bind def
/Tm { 2 copy 8 2 roll 6 array astore /cairo_font_matrix exch def
      cairo_store_point /cairo_font where { pop cairo_selectfont } if } bind def
/g { setgray } bind def
/rg { setrgbcolor } bind def
/d1 { setcachedevice } bind def
%%EndProlog
%%BeginSetup
%%EndSetup
%%Page: 1 1
%%BeginPageSetup
%%PageBoundingBox: 0 0 180 116
%%EndPageSetup
q 0 0 180 116 rectclip q
0.301961 g
36.57 58.134 10.941 -6.34 re f
0 g
1.061467 w
0 J
0 j
[] 0.0 d
4 M q 1 0 0 -1 0 115.200005 cm
36.57 57.066 10.941 6.34 re S Q
0.301961 g
36.59 51.802 10.941 -6.34 re f
0 g
q 1 0 0 -1 0 115.200005 cm
36.59 63.398 10.941 6.34 re S Q
0.301961 g
36.57 70.778 10.941 -6.34 re f
0 g
q 1 0 0 -1 0 115.200005 cm
36.57 44.422 10.941 6.34 re S Q
0.301961 g
36.59 64.45 10.941 -6.34 re f
0 g
q 1 0 0 -1 0 115.200005 cm
36.59 50.75 10.941 6.34 re S Q
0.301961 g
1.055 58.134 10.941 -6.34 re f
0 g
q 1 0 0 -1 0 115.200005 cm
1.055 57.066 10.941 6.34 re S Q
0.301961 g
11.996 58.134 10.941 -6.34 re f
0 g
q 1 0 0 -1 0 115.200005 cm
11.996 57.066 10.941 6.34 re S Q
0.301961 g
22.938 58.134 10.941 -6.34 re f
0 g
q 1 0 0 -1 0 115.200005 cm
22.938 57.066 10.941 6.34 re S Q
0.301961 g
1.078 51.802 10.941 -6.34 re f
0 g
q 1 0 0 -1 0 115.200005 cm
1.078 63.398 10.941 6.34 re S Q
0.301961 g
12.02 51.802 10.941 -6.34 re f
0 g
q 1 0 0 -1 0 115.200005 cm
12.02 63.398 10.941 6.34 re S Q
0.301961 g
22.961 51.802 10.938 -6.34 re f
0 g
q 1 0 0 -1 0 115.200005 cm
22.961 63.398 10.938 6.34 re S Q
0.301961 g
1.055 70.778 10.941 -6.34 re f
0 g
q 1 0 0 -1 0 115.200005 cm
1.055 44.422 10.941 6.34 re S Q
0.301961 g
11.996 70.778 10.941 -6.34 re f
0 g
q 1 0 0 -1 0 115.200005 cm
11.996 44.422 10.941 6.34 re S Q
0.301961 g
22.938 70.778 10.941 -6.34 re f
0 g
q 1 0 0 -1 0 115.200005 cm
22.938 44.422 10.941 6.34 re S Q
0.301961 g
1.078 64.45 10.941 -6.34 re f
0 g
q 1 0 0 -1 0 115.200005 cm
1.078 50.75 10.941 6.34 re S Q
0.301961 g
12.02 64.45 10.941 -6.34 re f
0 g
q 1 0 0 -1 0 115.200005 cm
12.02 50.75 10.941 6.34 re S Q
0.301961 g
22.961 64.45 10.938 -6.34 re f
0 g
q 1 0 0 -1 0 115.200005 cm
22.961 50.75 10.938 6.34 re S Q
0.8 g
88.887 78.665 10.941 -6.34 re f
0 g
q 1 0 0 -1 0 115.200005 cm
88.887 36.535 10.941 6.34 re S Q
1 g
77.945 78.665 10.941 -6.34 re f
0 g
q 1 0 0 -1 0 115.200005 cm
77.945 36.535 10.941 6.34 re S Q
1 g
67.004 78.665 10.941 -6.34 re f
0 g
q 1 0 0 -1 0 115.200005 cm
67.004 36.535 10.941 6.34 re S Q
0.8 g
88.863 84.993 10.941 -6.34 re f
0 g
q 1 0 0 -1 0 115.200005 cm
88.863 30.207 10.941 6.34 re S Q
1 g
77.926 84.993 10.938 -6.34 re f
0 g
q 1 0 0 -1 0 115.200005 cm
77.926 30.207 10.938 6.34 re S Q
1 g
66.984 84.993 10.941 -6.34 re f
0 g
q 1 0 0 -1 0 115.200005 cm
66.984 30.207 10.941 6.34 re S Q
0.8 g
88.887 66.02 10.941 -6.344 re f
0 g
q 1 0 0 -1 0 115.200005 cm
88.887 49.18 10.941 6.344 re S Q
0.8 g
77.945 66.02 10.941 -6.344 re f
0 g
q 1 0 0 -1 0 115.200005 cm
77.945 49.18 10.941 6.344 re S Q
0.301961 g
67.004 66.02 10.941 -6.344 re f
0 g
q 1 0 0 -1 0 115.200005 cm
67.004 49.18 10.941 6.344 re S Q
0.8 g
88.863 72.348 10.941 -6.34 re f
0 g
q 1 0 0 -1 0 115.200005 cm
88.863 42.852 10.941 6.34 re S Q
0.8 g
77.926 72.348 10.938 -6.34 re f
0 g
q 1 0 0 -1 0 115.200005 cm
77.926 42.852 10.938 6.34 re S Q
0.301961 g
66.984 72.348 10.941 -6.34 re f
0 g
q 1 0 0 -1 0 115.200005 cm
66.984 42.852 10.941 6.34 re S Q
1 g
102.516 78.665 10.941 -6.34 re f
0 g
q 1 0 0 -1 0 115.200005 cm
102.516 36.535 10.941 6.34 re S Q
1 g
102.496 84.993 10.941 -6.34 re f
0 g
q 1 0 0 -1 0 115.200005 cm
102.496 30.207 10.941 6.34 re S Q
1 g
102.516 66.02 10.941 -6.344 re f
0 g
q 1 0 0 -1 0 115.200005 cm
102.516 49.18 10.941 6.344 re S Q
1 g
102.496 72.348 10.941 -6.34 re f
0 g
q 1 0 0 -1 0 115.200005 cm
102.496 42.852 10.941 6.34 re S Q
1 g
88.887 78.665 10.941 -6.34 re f
0 g
q 1 0 0 -1 0 115.200005 cm
88.887 36.535 10.941 6.34 re S Q
1 g
77.945 78.665 10.941 -6.34 re f
0 g
q 1 0 0 -1 0 115.200005 cm
77.945 36.535 10.941 6.34 re S Q
1 g
67.004 78.665 10.941 -6.34 re f
0 g
q 1 0 0 -1 0 115.200005 cm
67.004 36.535 10.941 6.34 re S Q
1 g
88.863 84.993 10.941 -6.34 re f
0 g
q 1 0 0 -1 0 115.200005 cm
88.863 30.207 10.941 6.34 re S Q
1 g
77.926 84.993 10.938 -6.34 re f
0 g
q 1 0 0 -1 0 115.200005 cm
77.926 30.207 10.938 6.34 re S Q
1 g
66.984 84.993 10.941 -6.34 re f
0 g
q 1 0 0 -1 0 115.200005 cm
66.984 30.207 10.941 6.34 re S Q
1 g
88.887 66.02 10.941 -6.344 re f
0 g
q 1 0 0 -1 0 115.200005 cm
88.887 49.18 10.941 6.344 re S Q
1 g
77.945 66.02 10.941 -6.344 re f
0 g
q 1 0 0 -1 0 115.200005 cm
77.945 49.18 10.941 6.344 re S Q
0.301961 g
67.004 66.02 10.941 -6.344 re f
0 g
q 1 0 0 -1 0 115.200005 cm
67.004 49.18 10.941 6.344 re S Q
0.301961 g
88.863 72.348 10.941 -6.34 re f
0 g
q 1 0 0 -1 0 115.200005 cm
88.863 42.852 10.941 6.34 re S Q
0.301961 g
77.926 72.348 10.938 -6.34 re f
0 g
q 1 0 0 -1 0 115.200005 cm
77.926 42.852 10.938 6.34 re S Q
0.301961 g
66.984 72.348 10.941 -6.34 re f
0 g
q 1 0 0 -1 0 115.200005 cm
66.984 42.852 10.941 6.34 re S Q
1 g
102.516 78.665 10.941 -6.34 re f
0 g
q 1 0 0 -1 0 115.200005 cm
102.516 36.535 10.941 6.34 re S Q
1 g
102.496 84.993 10.941 -6.34 re f
0 g
q 1 0 0 -1 0 115.200005 cm
102.496 30.207 10.941 6.34 re S Q
1 g
102.516 66.02 10.941 -6.344 re f
0 g
q 1 0 0 -1 0 115.200005 cm
102.516 49.18 10.941 6.344 re S Q
1 g
102.496 72.348 10.941 -6.34 re f
0 g
q 1 0 0 -1 0 115.200005 cm
102.496 42.852 10.941 6.34 re S Q
1 g
102.496 101.704 10.941 -6.344 re f
0 g
q 1 0 0 -1 0 115.200005 cm
102.496 13.496 10.941 6.344 re S Q
0.301961 g
102.516 95.372 10.941 -6.34 re f
0 g
q 1 0 0 -1 0 115.200005 cm
102.516 19.828 10.941 6.34 re S Q
1 g
102.496 114.348 10.941 -6.34 re f
0 g
q 1 0 0 -1 0 115.200005 cm
102.496 0.852 10.941 6.34 re S Q
1 g
102.516 108.02 10.941 -6.344 re f
0 g
q 1 0 0 -1 0 115.200005 cm
102.516 7.18 10.941 6.344 re S Q
0.301961 g
66.984 101.704 10.941 -6.344 re f
0 g
q 1 0 0 -1 0 115.200005 cm
66.984 13.496 10.941 6.344 re S Q
1 g
77.926 101.704 10.938 -6.344 re f
0 g
q 1 0 0 -1 0 115.200005 cm
77.926 13.496 10.938 6.344 re S Q
1 g
88.863 101.704 10.941 -6.344 re f
0 g
q 1 0 0 -1 0 115.200005 cm
88.863 13.496 10.941 6.344 re S Q
0.301961 g
67.004 95.372 10.941 -6.34 re f
0 g
q 1 0 0 -1 0 115.200005 cm
67.004 19.828 10.941 6.34 re S Q
0.301961 g
77.945 95.372 10.941 -6.34 re f
0 g
q 1 0 0 -1 0 115.200005 cm
77.945 19.828 10.941 6.34 re S Q
0.301961 g
88.887 95.372 10.941 -6.34 re f
0 g
q 1 0 0 -1 0 115.200005 cm
88.887 19.828 10.941 6.34 re S Q
0.301961 g
66.984 114.348 10.941 -6.34 re f
0 g
q 1 0 0 -1 0 115.200005 cm
66.984 0.852 10.941 6.34 re S Q
0.301961 g
77.926 114.348 10.938 -6.34 re f
0 g
q 1 0 0 -1 0 115.200005 cm
77.926 0.852 10.938 6.34 re S Q
1 g
88.863 114.348 10.941 -6.34 re f
0 g
q 1 0 0 -1 0 115.200005 cm
88.863 0.852 10.941 6.34 re S Q
0.301961 g
67.004 108.02 10.941 -6.344 re f
0 g
q 1 0 0 -1 0 115.200005 cm
67.004 7.18 10.941 6.344 re S Q
0.301961 g
77.945 108.02 10.941 -6.344 re f
0 g
q 1 0 0 -1 0 115.200005 cm
77.945 7.18 10.941 6.344 re S Q
1 g
88.887 108.02 10.941 -6.344 re f
0 g
q 1 0 0 -1 0 115.200005 cm
88.887 7.18 10.941 6.344 re S Q
1 g
102.426 13.641 10.941 -6.344 re f
0 g
q 1 0 0 -1 0 115.200005 cm
102.426 101.559 10.941 6.344 re S Q
1 g
102.449 7.309 10.941 -6.34 re f
0 g
q 1 0 0 -1 0 115.200005 cm
102.449 107.891 10.941 6.34 re S Q
1 g
102.426 26.286 10.941 -6.34 re f
0 g
q 1 0 0 -1 0 115.200005 cm
102.426 88.914 10.941 6.34 re S Q
1 g
102.449 19.958 10.941 -6.344 re f
0 g
q 1 0 0 -1 0 115.200005 cm
102.449 95.242 10.941 6.344 re S Q
0.8 g
66.914 13.641 10.941 -6.344 re f
0 g
q 1 0 0 -1 0 115.200005 cm
66.914 101.559 10.941 6.344 re S Q
0.8 g
77.855 13.641 10.941 -6.344 re f
0 g
q 1 0 0 -1 0 115.200005 cm
77.855 101.559 10.941 6.344 re S Q
0.8 g
88.797 13.641 10.941 -6.344 re f
0 g
q 1 0 0 -1 0 115.200005 cm
88.797 101.559 10.941 6.344 re S Q
0.8 g
66.934 7.309 10.941 -6.34 re f
0 g
q 1 0 0 -1 0 115.200005 cm
66.934 107.891 10.941 6.34 re S Q
0.8 g
77.875 7.309 10.941 -6.34 re f
0 g
q 1 0 0 -1 0 115.200005 cm
77.875 107.891 10.941 6.34 re S Q
0.8 g
88.816 7.309 10.941 -6.34 re f
0 g
q 1 0 0 -1 0 115.200005 cm
88.816 107.891 10.941 6.34 re S Q
0.301961 g
66.914 26.286 10.941 -6.34 re f
0 g
q 1 0 0 -1 0 115.200005 cm
66.914 88.914 10.941 6.34 re S Q
0.301961 g
77.855 26.286 10.941 -6.34 re f
0 g
q 1 0 0 -1 0 115.200005 cm
77.855 88.914 10.941 6.34 re S Q
0.8 g
88.797 26.286 10.941 -6.34 re f
0 g
q 1 0 0 -1 0 115.200005 cm
88.797 88.914 10.941 6.34 re S Q
0.8 g
66.934 19.958 10.941 -6.344 re f
0 g
q 1 0 0 -1 0 115.200005 cm
66.934 95.242 10.941 6.344 re S Q
0.8 g
77.875 19.958 10.941 -6.344 re f
0 g
q 1 0 0 -1 0 115.200005 cm
77.875 95.242 10.941 6.344 re S Q
0.8 g
88.816 19.958 10.941 -6.344 re f
0 g
q 1 0 0 -1 0 115.200005 cm
88.816 95.242 10.941 6.344 re S Q
1 g
102.426 13.641 10.941 -6.344 re f
0 g
q 1 0 0 -1 0 115.200005 cm
102.426 101.559 10.941 6.344 re S Q
1 g
102.449 7.309 10.941 -6.34 re f
0 g
q 1 0 0 -1 0 115.200005 cm
102.449 107.891 10.941 6.34 re S Q
1 g
102.426 26.286 10.941 -6.34 re f
0 g
q 1 0 0 -1 0 115.200005 cm
102.426 88.914 10.941 6.34 re S Q
1 g
102.449 19.958 10.941 -6.344 re f
0 g
q 1 0 0 -1 0 115.200005 cm
102.449 95.242 10.941 6.344 re S Q
0.301961 g
66.914 13.641 10.941 -6.344 re f
0 g
q 1 0 0 -1 0 115.200005 cm
66.914 101.559 10.941 6.344 re S Q
0.301961 g
77.855 13.641 10.941 -6.344 re f
0 g
q 1 0 0 -1 0 115.200005 cm
77.855 101.559 10.941 6.344 re S Q
1 g
88.797 13.641 10.941 -6.344 re f
0 g
q 1 0 0 -1 0 115.200005 cm
88.797 101.559 10.941 6.344 re S Q
0.301961 g
66.934 7.309 10.941 -6.34 re f
0 g
q 1 0 0 -1 0 115.200005 cm
66.934 107.891 10.941 6.34 re S Q
1 g
77.875 7.309 10.941 -6.34 re f
0 g
q 1 0 0 -1 0 115.200005 cm
77.875 107.891 10.941 6.34 re S Q
1 g
88.816 7.309 10.941 -6.34 re f
0 g
q 1 0 0 -1 0 115.200005 cm
88.816 107.891 10.941 6.34 re S Q
0.301961 g
66.914 26.286 10.941 -6.34 re f
0 g
q 1 0 0 -1 0 115.200005 cm
66.914 88.914 10.941 6.34 re S Q
0.301961 g
77.855 26.286 10.941 -6.34 re f
0 g
q 1 0 0 -1 0 115.200005 cm
77.855 88.914 10.941 6.34 re S Q
1 g
88.797 26.286 10.941 -6.34 re f
0 g
q 1 0 0 -1 0 115.200005 cm
88.797 88.914 10.941 6.34 re S Q
1 g
66.934 19.958 10.941 -6.344 re f
0 g
q 1 0 0 -1 0 115.200005 cm
66.934 95.242 10.941 6.344 re S Q
1 g
77.875 19.958 10.941 -6.344 re f
0 g
q 1 0 0 -1 0 115.200005 cm
77.875 95.242 10.941 6.344 re S Q
1 g
88.816 19.958 10.941 -6.344 re f
0 g
q 1 0 0 -1 0 115.200005 cm
88.816 95.242 10.941 6.344 re S Q
1 g
102.426 42.993 10.941 -6.34 re f
0 g
q 1 0 0 -1 0 115.200005 cm
102.426 72.207 10.941 6.34 re S Q
1 g
102.449 36.665 10.941 -6.34 re f
0 g
q 1 0 0 -1 0 115.200005 cm
102.449 78.535 10.941 6.34 re S Q
1 g
102.426 55.641 10.941 -6.344 re f
0 g
q 1 0 0 -1 0 115.200005 cm
102.426 59.559 10.941 6.344 re S Q
1 g
102.449 49.309 10.941 -6.34 re f
0 g
q 1 0 0 -1 0 115.200005 cm
102.449 65.891 10.941 6.34 re S Q
0.301961 g
66.914 42.993 10.941 -6.34 re f
0 g
q 1 0 0 -1 0 115.200005 cm
66.914 72.207 10.941 6.34 re S Q
1 g
77.855 42.993 10.941 -6.34 re f
0 g
q 1 0 0 -1 0 115.200005 cm
77.855 72.207 10.941 6.34 re S Q
1 g
88.797 42.993 10.941 -6.34 re f
0 g
q 1 0 0 -1 0 115.200005 cm
88.797 72.207 10.941 6.34 re S Q
1 g
66.934 36.665 10.941 -6.34 re f
0 g
q 1 0 0 -1 0 115.200005 cm
66.934 78.535 10.941 6.34 re S Q
1 g
77.875 36.665 10.941 -6.34 re f
0 g
q 1 0 0 -1 0 115.200005 cm
77.875 78.535 10.941 6.34 re S Q
1 g
88.816 36.665 10.941 -6.34 re f
0 g
q 1 0 0 -1 0 115.200005 cm
88.816 78.535 10.941 6.34 re S Q
0.301961 g
66.914 55.641 10.941 -6.34 re f
0 g
q 1 0 0 -1 0 115.200005 cm
66.914 59.559 10.941 6.34 re S Q
1 g
77.855 55.641 10.941 -6.34 re f
0 g
q 1 0 0 -1 0 115.200005 cm
77.855 59.559 10.941 6.34 re S Q
1 g
88.797 55.641 10.941 -6.34 re f
0 g
q 1 0 0 -1 0 115.200005 cm
88.797 59.559 10.941 6.34 re S Q
0.301961 g
66.934 49.309 10.941 -6.34 re f
0 g
q 1 0 0 -1 0 115.200005 cm
66.934 65.891 10.941 6.34 re S Q
0.301961 g
77.875 49.309 10.941 -6.34 re f
0 g
q 1 0 0 -1 0 115.200005 cm
77.875 65.891 10.941 6.34 re S Q
1 g
88.816 49.309 10.941 -6.34 re f
0 g
q 1 0 0 -1 0 115.200005 cm
88.816 65.891 10.941 6.34 re S Q
1 g
154.812 90.665 10.941 -6.34 re f
0 g
q 1 0 0 -1 0 115.200005 cm
154.812 24.535 10.941 6.34 re S Q
0.301961 g
143.871 90.665 10.941 -6.34 re f
0 g
q 1 0 0 -1 0 115.200005 cm
143.871 24.535 10.941 6.34 re S Q
0.301961 g
132.93 90.665 10.941 -6.34 re f
0 g
q 1 0 0 -1 0 115.200005 cm
132.93 24.535 10.941 6.34 re S Q
1 g
154.793 96.993 10.938 -6.34 re f
0 g
q 1 0 0 -1 0 115.200005 cm
154.793 18.207 10.938 6.34 re S Q
1 g
143.852 96.993 10.941 -6.34 re f
0 g
q 1 0 0 -1 0 115.200005 cm
143.852 18.207 10.941 6.34 re S Q
1 g
132.91 96.993 10.941 -6.34 re f
0 g
q 1 0 0 -1 0 115.200005 cm
132.91 18.207 10.941 6.34 re S Q
1 g
154.812 78.02 10.941 -6.344 re f
0 g
q 1 0 0 -1 0 115.200005 cm
154.812 37.18 10.941 6.344 re S Q
0.301961 g
143.871 78.02 10.941 -6.344 re f
0 g
q 1 0 0 -1 0 115.200005 cm
143.871 37.18 10.941 6.344 re S Q
0.301961 g
132.93 78.02 10.941 -6.344 re f
0 g
q 1 0 0 -1 0 115.200005 cm
132.93 37.18 10.941 6.344 re S Q
1 g
154.793 84.348 10.938 -6.34 re f
0 g
q 1 0 0 -1 0 115.200005 cm
154.793 30.852 10.938 6.34 re S Q
1 g
143.852 84.348 10.941 -6.34 re f
0 g
q 1 0 0 -1 0 115.200005 cm
143.852 30.852 10.941 6.34 re S Q
1 g
132.91 84.348 10.941 -6.34 re f
0 g
q 1 0 0 -1 0 115.200005 cm
132.91 30.852 10.941 6.34 re S Q
1 g
168.445 90.665 10.938 -6.34 re f
0 g
q 1 0 0 -1 0 115.200005 cm
168.445 24.535 10.938 6.34 re S Q
1 g
168.422 96.993 10.941 -6.34 re f
0 g
q 1 0 0 -1 0 115.200005 cm
168.422 18.207 10.941 6.34 re S Q
1 g
168.445 78.02 10.938 -6.344 re f
0 g
q 1 0 0 -1 0 115.200005 cm
168.445 37.18 10.938 6.344 re S Q
1 g
168.422 84.348 10.941 -6.34 re f
0 g
q 1 0 0 -1 0 115.200005 cm
168.422 30.852 10.941 6.34 re S Q
1 g
154.812 90.665 10.941 -6.34 re f
0 g
q 1 0 0 -1 0 115.200005 cm
154.812 24.535 10.941 6.34 re S Q
0.301961 g
143.871 90.665 10.941 -6.34 re f
0 g
q 1 0 0 -1 0 115.200005 cm
143.871 24.535 10.941 6.34 re S Q
0.301961 g
132.93 90.665 10.941 -6.34 re f
0 g
q 1 0 0 -1 0 115.200005 cm
132.93 24.535 10.941 6.34 re S Q
1 g
154.793 96.993 10.938 -6.34 re f
0 g
q 1 0 0 -1 0 115.200005 cm
154.793 18.207 10.938 6.34 re S Q
1 g
143.852 96.993 10.941 -6.34 re f
0 g
q 1 0 0 -1 0 115.200005 cm
143.852 18.207 10.941 6.34 re S Q
1 g
132.91 96.993 10.941 -6.34 re f
0 g
q 1 0 0 -1 0 115.200005 cm
132.91 18.207 10.941 6.34 re S Q
1 g
154.812 78.02 10.941 -6.344 re f
0 g
q 1 0 0 -1 0 115.200005 cm
154.812 37.18 10.941 6.344 re S Q
0.301961 g
143.871 78.02 10.941 -6.344 re f
0 g
q 1 0 0 -1 0 115.200005 cm
143.871 37.18 10.941 6.344 re S Q
0.301961 g
132.93 78.02 10.941 -6.344 re f
0 g
q 1 0 0 -1 0 115.200005 cm
132.93 37.18 10.941 6.344 re S Q
1 g
154.793 84.348 10.938 -6.34 re f
0 g
q 1 0 0 -1 0 115.200005 cm
154.793 30.852 10.938 6.34 re S Q
1 g
143.852 84.348 10.941 -6.34 re f
0 g
q 1 0 0 -1 0 115.200005 cm
143.852 30.852 10.941 6.34 re S Q
1 g
132.91 84.348 10.941 -6.34 re f
0 g
q 1 0 0 -1 0 115.200005 cm
132.91 30.852 10.941 6.34 re S Q
1 g
168.445 90.665 10.938 -6.34 re f
0 g
q 1 0 0 -1 0 115.200005 cm
168.445 24.535 10.938 6.34 re S Q
1 g
168.422 96.993 10.941 -6.34 re f
0 g
q 1 0 0 -1 0 115.200005 cm
168.422 18.207 10.941 6.34 re S Q
1 g
168.445 78.02 10.938 -6.344 re f
0 g
q 1 0 0 -1 0 115.200005 cm
168.445 37.18 10.938 6.344 re S Q
1 g
168.422 84.348 10.941 -6.34 re f
0 g
q 1 0 0 -1 0 115.200005 cm
168.422 30.852 10.941 6.34 re S Q
0.117941 w
q 1 0 0 -1 0 115.200005 cm
47.59 47.84 m 58.852 43.172 53.34 9.738 66.887 3.684 c S Q
65.809 111.036 m 65.57 110.415 l 66.887 111.516 l 65.184 111.274 l h
65.809 111.036 m f*
0.107673 w
q -1 -0.447014 -0.447014 1 0 115.200005 cm
-53.297 -27.989 m -52.867 -28.418 l -54.375 -27.99 l -52.865 -27.557 l 
h
-53.297 -27.989 m S Q
0.117941 w
q 1 0 0 -1 0 115.200005 cm
48.223 53.707 m 57.676 50.809 54.328 37.637 66.59 33.262 c S Q
65.48 81.54 m 65.195 80.938 l 66.59 81.938 l 64.879 81.825 l h
65.48 81.54 m f*
0.111082 w
q -1 -0.356793 -0.356793 1 0 115.200005 cm
-47.433 -50.584 m -46.989 -51.027 l -48.543 -50.581 l -46.989 -50.14 l 
h
-47.433 -50.584 m S Q
0.117941 w
q 1 0 0 -1 0 115.200005 cm
48.012 60.27 m 54.219 60.121 60.031 62.473 66.137 62.574 c S Q
64.957 52.645 m 64.477 52.184 l 66.137 52.626 l 64.492 53.126 l h
64.957 52.645 m f*
0.117924 w
q -1 0.0166624 0.0166624 1 0 115.200005 cm
-65.981 -61.455 m -65.508 -61.924 l -67.161 -61.455 l -65.508 -60.983 l
 h
-65.981 -61.455 m S Q
0.117941 w
q 1 0 0 -1 0 115.200005 cm
47.484 66.324 m 55.934 73.676 54.418 85.859 66.164 92.293 c S Q
65.129 23.473 m 64.492 23.286 l 66.164 22.907 l 64.945 24.114 l h
65.129 23.473 m f*
0.103443 w
q -1 0.547673 0.547673 1 0 115.200005 cm
-88.746 -43.123 m -88.335 -43.535 l -89.781 -43.122 l -88.335 -42.707 l
 h
-88.746 -43.123 m S Q
0.141287 w
q 1 0 0 -1 0 115.200005 cm
113.75 23.23 m 119.973 22.707 119.957 21.992 132.418 21.656 c S Q
131.004 93.505 m 130.453 92.927 l 132.418 93.544 l 130.426 94.055 l h
131.004 93.505 m f*
0.141235 w
q -1 -0.0270231 -0.0270231 1 0 115.200005 cm
-130.322 -25.217 m -129.756 -25.78 l -131.737 -25.216 l -129.76 -24.651
 l h
-130.322 -25.217 m S Q
Q Q
showpage
%%Trailer
end restore
%%EOF
